<svg width="16" height="16" viewBox="0 0 16 16" fill="none" xmlns="http://www.w3.org/2000/svg">
<rect width="16" height="16" rx="4" fill="white"/>
<g clip-path="url(#clip0)">
<path d="M6.93298 5.40002C6.66632 5.13336 6.66632 4.80002 6.86632 4.60002L8.59965 2.86669C8.79965 2.66669 9.13298 2.66669 9.39965 2.86669L9.46632 2.93336C9.66632 3.13336 9.66632 3.46669 9.46632 3.73336L7.73298 5.40002C7.53298 5.60002 7.13298 5.60002 6.93298 5.40002Z" fill="black"/>
<path d="M10.6665 9.13335C10.3999 8.86668 10.3999 8.53335 10.5999 8.26668L12.3332 6.53335C12.5332 6.33335 12.8665 6.33335 13.1332 6.53335L13.1999 6.60001C13.3999 6.80001 13.3999 7.13335 13.1999 7.40001L11.4665 9.13335C11.1999 9.33335 10.8665 9.33335 10.6665 9.13335Z" fill="black"/>
<path d="M9.33315 7.80002L8.19982 6.66668C7.93315 6.40002 7.93315 6.00002 8.19982 5.73335L9.73315 4.20002C9.99982 3.93335 10.3998 3.93335 10.6665 4.20002L11.7998 5.33335C12.0665 5.60002 12.0665 6.00002 11.7998 6.26668L10.2665 7.80002C9.99982 8.06668 9.59982 8.06668 9.33315 7.80002Z" fill="black"/>
<path d="M5.33385 12.1333C5.73385 11.7333 8.00052 8.40002 8.33385 8.60002C8.60052 8.73335 9.00052 8.26668 9.00052 8.26668L7.73385 7.00002C7.73385 7.00002 7.26718 7.40002 7.40052 7.66668C7.60052 8.00002 4.26718 10.2667 3.86718 10.6667C3.86718 10.6667 2.00052 12.1333 2.93385 13.0667C3.86718 14 5.33385 12.1333 5.33385 12.1333Z" fill="black"/>
</g>
<defs>
<clipPath id="clip0">
<rect width="10.6667" height="10.6667" fill="white" transform="translate(2.66666 2.66667)"/>
</clipPath>
</defs>
</svg>
